<?xml version="1.0" encoding="UTF-8"?>
<CustomTab xmlns="http://soap.sforce.com/2006/04/metadata">
    <customObject>true</customObject>
    <description>For testing user story: US-0007549</description>
    <motif>Custom21: Computer</motif>
</CustomTab>
