<?xml version="1.0" encoding="UTF-8"?>
<CustomTab xmlns="http://soap.sforce.com/2006/04/metadata">
    <icon>IATSPayment__Public/IATSPayment__AuraTabLogo5.png</icon>
    <label>iATS AURA Setup</label>
    <motif>Custom253: TV Widescreen</motif>
    <page>IATSPayment__aurasetup_Lightning</page>
</CustomTab>
