<?xml version="1.0" encoding="UTF-8"?>
<CustomTab xmlns="http://soap.sforce.com/2006/04/metadata">
    <description>IATS Home Page</description>
    <frameHeight>600</frameHeight>
    <hasSidebar>false</hasSidebar>
    <label>IATS Home</label>
    <motif>Custom53: Bell</motif>
    <url>http://www.iatspayments.com</url>
    <urlEncodingKey>UTF-8</urlEncodingKey>
</CustomTab>
